6.893443, 8.667782
6.478342, 8.606339
6.044831, 8.546482
5.747914, 8.627586
5.746190, 9.280449
5.018806, 8.953232
4.880359, 9.673877
4.207082, 9.948076
3.863527, 9.497705
3.943248, 9.398262
3.815576, 9.283535
4.214880, 9.002803
3.237847, 8.442862
2.287221, 9.206249
1.623397, 9.880486
1.311345, 9.948901
1.226437, 9.309627
1.143240, 8.666836
1.548879, 7.761744
2.218634, 6.713265
1.757149, 6.388167
1.321553, 6.360474
1.208014, 5.383964
1.488488, 4.513171
2.804370, 3.606437
3.180744, 3.469596
3.477664, 3.273232
3.173181, 2.888958
3.048111, 2.848797
3.346299, 2.707122
3.211589, 2.064446
1.779943, 2.683748
1.078808, 2.306527
2.403168, 1.833614
2.564825, 1.505446
4.155866, 1.792396
4.511294, 2.240602
4.893765, 1.849757
5.759257, 2.268430
5.804254, 2.282238
5.845266, 2.238062
6.873321, 1.837598
7.415183, 2.320834
6.892851, 2.688762
6.740898, 3.407141
7.049201, 4.266649
7.500696, 3.915296
7.699502, 4.161785
8.611002, 4.524432
9.088132, 3.629809
8.900941, 3.142636
8.886948, 3.045779
8.473882, 2.620595
8.345282, 2.629605
8.404352, 2.326388
7.990400, 1.708502
8.235138, 1.124782
9.204727, 1.905062
9.190928, 2.112530
9.761563, 4.513360
9.708214, 4.932283
9.987670, 6.043041
8.722866, 6.254825
7.990079, 5.489689
7.281102, 5.632719
7.401879, 6.116428
6.963327, 6.638160
7.487226, 7.565578
8.052961, 7.558423
9.828584, 7.594413
8.655994, 8.322929
8.767170, 9.123903
9.263867, 9.267403
9.642548, 9.189344
9.718868, 9.948231
8.500507, 9.881077
8.248871, 9.907392
7.681732, 9.518950
7.525500, 8.716188
6.558613, 9.621284
4.175134, 6.785014
4.385458, 6.768070
5.790306, 7.091475
5.617345, 7.219565
3.987635, 7.078408
2.861127, 7.194806
3.975552, 6.423357
4.185100, 6.026185
3.584607, 5.832936
4.075581, 5.207232
4.870287, 4.683393
4.957305, 4.512835
3.872738, 3.844254
4.967604, 3.012384
5.346448, 4.194292
5.419526, 5.689902
6.394751, 5.676703
6.741149, 5.669269
6.748546, 7.234554
6.196919, 8.105556
